1000000001 2017/07/04 : 9.99
1000000001 2017/08/04 : 11.99
1000000001 2017/08/09 : 12.99
1000000002 2017/02/05 : 8.99
1000000002 2017/08/05 : 12.99
1000000003 2014/02/04 : 15.99
1000000003 2017/08/04 : 19.99
1000000004 2017/02/03 : 10.99
1000000004 2017/08/03 : 13.99
1000000005 2017/08/01 : 16.99
1000000005 2017/08/04 : 13.99
