2017/08/04 : 10000 200 800
2017/08/05 : 12000 500 200
2017/08/06 : 11000 1000 10000
2017/08/07 : 13000 20 12980
2017/08/08 : 14000 4000 100000
2017/08/09 : 2.36 25.96 23.599998
2017/08/09 : 4.35 55.949997 51.6
2017/08/09 : 4.35 55.949997 51.6
2017/08/09 : 4.35 55.949997 51.6
2017/08/09 : 4.35 55.949997 51.6
2017/08/09 : 4.35 55.949997 51.6
2017/08/09 : 4.35 55.949997 51.6
2017/08/09 : 4.35 55.949997 51.6
2017/08/09 : 4.35 55.949997 51.6
2017/08/09 : 4.35 55.949997 51.6
2017/08/09 : 4.35 55.949997 51.6
2017/08/09 : 4.35 55.949997 51.6
2017/08/09 : 4.35 55.949997 51.6
2017/08/09 : 4.35 55.949997 51.6
2017/08/09 : 4.35 55.949997 51.6
2017/08/10 : null null null